…
```r
## profile most prominent profile timezone
suppressMessages(library(dplyr))
set.seed(1)
users.t %>% group_by(TIMEZONE) %>% summarise(n = n()) %>% arrange(desc(n))
```

```
## # A tibble: 190 × 2
##                       TIMEZONE     n
##                         <fctr> <int>
## 1                           NA 45321
## 2   Pacific Time (US & Canada)  7516
## 3   Eastern Time (US & Canada)  5258
## 4   Central Time (US & Canada)  3749
## 5                       London  2006
## 6       Atlantic Time (Canada)  1406
## 7                        Quito   994
## 8                      Arizona   753
## 9                    Amsterdam   651
## 10 Mountain Time (US & Canada)   636
## # ... with 180 more rows
```

```r
## profile color
users.t %>% group_by(PROFILE_TEXT_COLOR) %>% summarise(n = n()) %>% arrange(desc(n))
```

```
## # A tibble: 1,903 × 2
##    PROFILE_TEXT_COLOR     n
##                <fctr> <int>
## 1              333333 56989
## 2              000000 10141
## 3              666666   959
## 4              3D1957   789
## 5              3C3940   570
## 6              3E4415   397
## 7              362720   375
## 8              663B12   294
## 9              634047   259
## 10             0C3E53   246
## # ... with 1,893 more rows
```
…
